[
    {
        "name": "CHASSIS",
        "attributes": [
            "product_code:str",
            "width:int",
            "height:int"
        ],
        "values": []
    },
    {
        "name": "NODE",
        "attributes": [
            "product_code:str",
            "width:int",
            "height:int",
            "cpu_sockets:int"
        ],
        "values": []
    }
]