{
    "rules": {
        "AttributeLessThan": {
            "constructors": [
                "str",
                "int"
            ],
            "function": "lambda x: x['\\c0'] <= \\c1",
            "arg_type": "\\Clover"
        },
        "IsEven": {
            "constructors": [],
            "function": "lambda x: x % 2 == 0",
            "arg_type": "int"
        }
    }
}